thompson-ryan-ADA-homework-4.git
…
Challenge 2

### Challenge 2
cv_summary(d = cv_data, country_list = c("US", "United Kingdom", 
                                         "Canada", "France", "Germany", 
                                         "Italy", "Japan", "China",
                                         "Russia", "Iran"))

## $totals
## # A tibble: 60 x 13
##    country variable cases population   area density    rate gdp_capita income
##    <chr>   <chr>    <dbl>      <dbl>  <dbl>   <dbl>   <dbl>      <dbl> <chr> 
##  1 Canada  confirm~ 60504   37057765 9.09e6    4.08 1.63e+3     51392. High ~
##  2 Canada  daily_c~  2778   37057765 9.09e6    4.08 7.50e+1     51392. High ~
##  3 Canada  daily_d~   251   37057765 9.09e6    4.08 6.77e+0     51392. High ~
##  4 Canada  daily_r~  1385   37057765 9.09e6    4.08 3.74e+1     51392. High ~
##  5 Canada  deaths    3795   37057765 9.09e6    4.08 1.02e+2     51392. High ~
##  6 Canada  recover~ 24921   37057765 9.09e6    4.08 6.72e+2     51392. High ~
##  7 China   confirm~ 83964 1392730000 9.39e6  148.   6.03e+1      7753. Upper~
##  8 China   daily_c~ 15136 1392730000 9.39e6  148.   1.09e+1      7753. Upper~
##  9 China   daily_d~  1290 1392730000 9.39e6  148.   9.26e-1      7753. Upper~
## 10 China   daily_r~  3995 1392730000 9.39e6  148.   2.87e+0      7753. Upper~
## # ... with 50 more rows, and 4 more variables: life_expectancy <dbl>,
## #   max_sd <dbl>, max_mr <dbl>, on <date>
## 
## $cum_cases_plot
…
